Phys272/Lab5/CSV/ALL0008.CSV

Format,1.0B,
Memory Length,10000,Memory Length,10000,
IntpDistance,2867,IntpDistance,2867,
Trigger Address,4991,Trigger Address,4991,
Trigger Level,-4.400E-01,Trigger Level,-4.400E-01,
Source,CH1,Source,CH2,
Vertical Units,V,Vertical Units,V,
Vertical Units Div,0,Vertical Units Div,0,
Vertical Units Extend Div,16,Vertical Units Extend Div,16,
Label, ,Label, ,
Probe Type,0,Probe Type,0,
Probe Ratio,1.000E+00,Probe Ratio,1.000E+00,
Vertical Scale,1.000E+00,Vertical Scale,1.000E+00,
Vertical Position,1.640E+00,Vertical Position,-2.280E+00,
Horizontal Units,S,Horizontal Units,S,
Horizontal Scale,1.000E-08,Horizontal Scale,1.000E-08,
Horizontal Position,1.630E-08,Horizontal Position,1.630E-08,
Horizontal Mode,Main,Horizontal Mode,Main,
SincET Mode,Sinc20,SincET Mode,Sinc20,
Sampling Period,2.000E-09,Sampling Period,2.000E-09,
Horizontal Old Scale,1.000E-08,Horizontal Old Scale,1.000E-08,
Horizontal Old Position,1.630E-08,Horizontal Old Position,1.630E-08,
Firmware,V1.29,Firmware,V1.29,
Mode,Detail,Mode,Detail,
Waveform Data,,Waveform Data,,
-9.983700e-06,6.80e-01,-9.983700e-06,8.00e-01,
-9.981700e-06,-8.80e-01,-9.981700e-06,1.56e+00,
-9.979700e-06,-1.24e+00,-9.979700e-06,1.00e+00,
-9.977700e-06,8.00e-02,-9.977700e-06,-8.00e-02,
-9.975700e-06,1.28e+00,-9.975700e-06,-1.60e-01,
-9.973700e-06,7.20e-01,-9.973700e-06,8.00e-01,
-9.971700e-06,-8.80e-01,-9.971700e-06,1.56e+00,
-9.969700e-06,-1.24e+00,-9.969700e-06,1.00e+00,
-9.967700e-06,8.00e-02,-9.967700e-06,-8.00e-02,
-9.965700e-06,1.28e+00,-9.965700e-06,-1.60e-01,
-9.963700e-06,7.20e-01,-9.963700e-06,8.00e-01,
-9.961700e-06,-8.80e-01,-9.961700e-06,1.56e+00,
-9.959700e-06,-1.24e+00,-9.959700e-06,1.00e+00,
-9.957700e-06,8.00e-02,-9.957700e-06,-8.00e-02,
-9.955700e-06,1.28e+00,-9.955700e-06,-1.60e-01,
-9.953700e-06,6.80e-01,-9.953700e-06,8.00e-01,
-9.951700e-06,-8.80e-01,-9.951700e-06,1.56e+00,
-9.949700e-06,-1.24e+00,-9.949700e-06,1.00e+00,
-9.947700e-06,8.00e-02,-9.947700e-06,-8.00e-02,
-9.945700e-06,1.28e+00,-9.945700e-06,-1.60e-01,
-9.943700e-06,7.20e-01,-9.943700e-06,8.00e-01,
-9.941700e-06,-8.80e-01,-9.941700e-06,1.56e+00,
-9.939700e-06,-1.24e+00,-9.939700e-06,1.00e+00,
-9.937700e-06,8.00e-02,-9.937700e-06,-8.00e-02,
-9.935700e-06,1.28e+00,-9.935700e-06,-1.60e-01,
-9.933700e-06,7.20e-01,-9.933700e-06,8.00e-01,
-9.931700e-06,-8.80e-01,-9.931700e-06,1.56e+00,
-9.929700e-06,-1.24e+00,-9.929700e-06,1.00e+00,
-9.927700e-06,8.00e-02,-9.927700e-06,-8.00e-02,
-9.925700e-06,1.28e+00,-9.925700e-06,-1.60e-01,
-9.923700e-06,7.20e-01,-9.923700e-06,8.00e-01,
-9.921700e-06,-8.80e-01,-9.921700e-06,1.56e+00,
-9.919700e-06,-1.24e+00,-9.919700e-06,1.00e+00,
-9.917700e-06,8.00e-02,-9.917700e-06,-8.00e-02,
-9.915700e-06,1.28e+00,-9.915700e-06,-1.60e-01,
-9.913700e-06,6.80e-01,-9.913700e-06,8.00e-01,
-9.911700e-06,-8.80e-01,-9.911700e-06,1.56e+00,
-9.909700e-06,-1.24e+00,-9.909700e-06,1.00e+00,
-9.907700e-06,8.00e-02,-9.907700e-06,-8.00e-02,
-9.905700e-06,1.28e+00,-9.905700e-06,-1.60e-01,
-9.903700e-06,6.80e-01,-9.903700e-06,8.00e-01,
-9.901700e-06,-8.80e-01,-9.901700e-06,1.56e+00,
-9.899700e-06,-1.24e+00,-9.899700e-06,1.00e+00,
-9.897700e-06,8.00e-02,-9.897700e-06,-8.00e-02,
-9.895700e-06,1.28e+00,-9.895700e-06,-1.60e-01,
-9.893700e-06,7.20e-01,-9.893700e-06,8.00e-01,
-9.891700e-06,-8.80e-01,-9.891700e-06,1.56e+00,
-9.889700e-06,-1.24e+00,-9.889700e-06,1.00e+00,
-9.887700e-06,8.00e-02,-9.887700e-06,-8.00e-02,
-9.885700e-06,1.28e+00,-9.885700e-06,-1.60e-01,
-9.883700e-06,7.20e-01,-9.883700e-06,8.00e-01,
-9.881700e-06,-8.80e-01,-9.881700e-06,1.56e+00,
-9.879700e-06,-1.24e+00,-9.879700e-06,1.00e+00,
-9.877700e-06,8.00e-02,-9.877700e-06,-8.00e-02,
-9.875700e-06,1.28e+00,-9.875700e-06,-1.60e-01,
-9.873700e-06,6.80e-01,-9.873700e-06,8.00e-01,
-9.871700e-06,-8.80e-01,-9.871700e-06,1.56e+00,
-9.869700e-06,-1.24e+00,-9.869700e-06,1.00e+00,
-9.867700e-06,8.00e-02,-9.867700e-06,-8.00e-02,
-9.865700e-06,1.28e+00,-9.865700e-06,-1.60e-01,
-9.863700e-06,7.20e-01,-9.863700e-06,8.00e-01,
-9.861700e-06,-8.80e-01,-9.861700e-06,1.56e+00,
-9.859700e-06,-1.24e+00,-9.859700e-06,1.00e+00,
-9.857700e-06,8.00e-02,-9.857700e-06,-8.00e-02,
-9.855700e-06,1.28e+00,-9.855700e-06,-1.60e-01,
-9.853700e-06,6.80e-01,-9.853700e-06,8.00e-01,
-9.851700e-06,-8.80e-01,-9.851700e-06,1.56e+00,
-9.849700e-06,-1.24e+00,-9.849700e-06,1.00e+00,
-9.847700e-06,8.00e-02,-9.847700e-06,-8.00e-02,
-9.845700e-06,1.28e+00,-9.845700e-06,-1.60e-01,
-9.843700e-06,6.80e-01,-9.843700e-06,8.00e-01,
-9.841700e-06,-8.80e-01,-9.841700e-06,1.56e+00,
-9.839700e-06,-1.24e+00,-9.839700e-06,1.00e+00,
-9.837700e-06,8.00e-02,-9.837700e-06,-8.00e-02,
-9.835700e-06,1.28e+00,-9.835700e-06,-1.60e-01,
-9.833700e-06,6.80e-01,-9.833700e-06,8.00e-01,
-9.831700e-06,-8.80e-01,-9.831700e-06,1.56e+00,
-9.829700e-06,-1.24e+00,-9.829700e-06,1.00e+00,
-9.827700e-06,8.00e-02,-9.827700e-06,-8.00e-02,
-9.825700e-06,1.28e+00,-9.825700e-06,-1.60e-01,
-9.823700e-06,7.20e-01,-9.823700e-06,8.00e-01,
-9.821700e-06,-8.80e-01,-9.821700e-06,1.56e+00,
-9.819700e-06,-1.24e+00,-9.819700e-06,1.00e+00,
-9.817700e-06,8.00e-02,-9.817700e-06,-8.00e-02,
-9.815700e-06,1.28e+00,-9.815700e-06,-1.60e-01,
-9.813700e-06,6.80e-01,-9.813700e-06,8.00e-01,
-9.811700e-06,-8.80e-01,-9.811700e-06,1.56e+00,
-9.809700e-06,-1.24e+00,-9.809700e-06,1.00e+00,
-9.807700e-06,8.00e-02,-9.807700e-06,-8.00e-02,
-9.805700e-06,1.28e+00,-9.805700e-06,-1.60e-01,
-9.803700e-06,7.20e-01,-9.803700e-06,8.00e-01,
-9.801700e-06,-8.80e-01,-9.801700e-06,1.56e+00,
-9.799700e-06,-1.24e+00,-9.799700e-06,1.00e+00,
-9.797700e-06,8.00e-02,-9.797700e-06,-8.00e-02,
-9.795700e-06,1.28e+00,-9.795700e-06,-1.60e-01,
-9.793700e-06,6.80e-01,-9.793700e-06,8.00e-01,
-9.791700e-06,-8.80e-01,-9.791700e-06,1.56e+00,
-9.789700e-06,-1.24e+00,-9.789700e-06,1.00e+00,
-9.787700e-06,8.00e-02,-9.787700e-06,-8.00e-02,
-9.785700e-06,1.28e+00,-9.785700e-06,-1.60e-01,
-9.783700e-06,6.80e-01,-9.783700e-06,8.00e-01,
-9.781700e-06,-8.80e-01,-9.781700e-06,1.56e+00,
-9.779700e-06,-1.24e+00,-9.779700e-06,1.00e+00,
-9.777700e-06,8.00e-02,-9.777700e-06,-8.00e-02,
-9.775700e-06,1.28e+00,-9.775700e-06,-1.60e-01,
-9.773700e-06,7.20e-01,-9.773700e-06,8.00e-01,
-9.771700e-06,-8.80e-01,-9.771700e-06,1.56e+00,
-9.769700e-06,-1.24e+00,-9.769700e-06,1.00e+00,
-9.767700e-06,8.00e-02,-9.767700e-06,-8.00e-02,
-9.765700e-06,1.28e+00,-9.765700e-06,-1.60e-01,
-9.763700e-06,7.20e-01,-9.763700e-06,8.00e-01,
-9.761700e-06,-8.80e-01,-9.761700e-06,1.56e+00,
-9.759700e-06,-1.24e+00,-9.759700e-06,1.00e+00,
-9.757700e-06,8.00e-02,-9.757700e-06,-8.00e-02,
-9.755700e-06,1.28e+00,-9.755700e-06,-1.60e-01,
-9.753700e-06,6.80e-01,-9.753700e-06,8.00e-01,
-9.751700e-06,-8.80e-01,-9.751700e-06,1.56e+00,
-9.749700e-06,-1.24e+00,-9.749700e-06,1.00e+00,
-9.747700e-06,8.00e-02,-9.747700e-06,-8.00e-02,
-9.745700e-06,1.28e+00,-9.745700e-06,-1.60e-01,
-9.743700e-06,6.80e-01,-9.743700e-06,8.00e-01,
-9.741700e-06,-8.80e-01,-9.741700e-06,1.56e+00,
-9.739700e-06,-1.24e+00,-9.739700e-06,1.00e+00,
-9.737700e-06,8.00e-02,-9.737700e-06,-8.00e-02,
-9.735700e-06,1.28e+00,-9.735700e-06,-1.60e-01,
-9.733700e-06,7.20e-01,-9.733700e-06,8.00e-01,
-9.731700e-06,-8.80e-01,-9.731700e-06,1.56e+00,
-9.729700e-06,-1.24e+00,-9.729700e-06,1.00e+00,
-9.727700e-06,8.00e-02,-9.727700e-06,-8.00e-02,
-9.725700e-06,1.28e+00,-9.725700e-06,-1.60e-01,
-9.723700e-06,6.80e-01,-9.723700e-06,8.00e-01,
-9.721700e-06,-8.80e-01,-9.721700e-06,1.56e+00,
-9.719700e-06,-1.24e+00,-9.719700e-06,1.00e+00,
-9.717700e-06,8.00e-02,-9.717700e-06,-8.00e-02,
-9.715700e-06,1.28e+00,-9.715700e-06,-1.60e-01,
-9.713700e-06,6.80e-01,-9.713700e-06,8.00e-01,
-9.711700e-06,-8.80e-01,-9.711700e-06,1.56e+00,
-9.709700e-06,-1.24e+00,-9.709700e-06,1.00e+00,
-9.707700e-06,8.00e-02,-9.707700e-06,-8.00e-02,
-9.705700e-06,1.28e+00,-9.705700e-06,-1.60e-01,
-9.703700e-06,6.80e-01,-9.703700e-06,8.00e-01,
-9.701700e-06,-8.80e-01,-9.701700e-06,1.56e+00,
-9.699700e-06,-1.24e+00,-9.699700e-06,1.00e+00,
-9.697700e-06,8.00e-02,-9.697700e-06,-8.00e-02,
-9.695700e-06,1.28e+00,-9.695700e-06,-1.60e-01,
-9.693700e-06,6.80e-01,-9.693700e-06,8.00e-01,
-9.691700e-06,-8.80e-01,-9.691700e-06,1.56e+00,
-9.689700e-06,-1.24e+00,-9.689700e-06,1.00e+00,
-9.687700e-06,8.00e-02,-9.687700e-06,-8.00e-02,
-9.685700e-06,1.28e+00,-9.685700e-06,-1.60e-01,
-9.683700e-06,7.20e-01,-9.683700e-06,8.00e-01,
-9.681700e-06,-8.80e-01,-9.681700e-06,1.56e+00,
-9.679700e-06,-1.24e+00,-9.679700e-06,1.00e+00,
-9.677700e-06,8.00e-02,-9.677700e-06,-8.00e-02,
-9.675700e-06,1.28e+00,-9.675700e-06,-1.60e-01,
-9.673700e-06,6.80e-01,-9.673700e-06,8.00e-01,
-9.671700e-06,-8.80e-01,-9.671700e-06,1.56e+00,
-9.669700e-06,-1.24e+00,-9.669700e-06,1.00e+00,
-9.667700e-06,8.00e-02,-9.667700e-06,-8.00e-02,
-9.665700e-06,1.28e+00,-9.665700e-06,-1.60e-01,
-9.663700e-06,6.80e-01,-9.663700e-06,8.00e-01,
-9.661700e-06,-8.80e-01,-9.661700e-06,1.56e+00,
-9.659700e-06,-1.24e+00,-9.659700e-06,1.00e+00,
-9.657700e-06,8.00e-02,-9.657700e-06,-8.00e-02,
-9.655700e-06,1.28e+00,-9.655700e-06,-1.60e-01,
-9.653700e-06,6.80e-01,-9.653700e-06,8.00e-01,
-9.651700e-06,-8.80e-01,-9.651700e-06,1.56e+00,
-9.649700e-06,-1.24e+00,-9.649700e-06,1.00e+00,
-9.647700e-06,8.00e-02,-9.647700e-06,-8.00e-02,
-9.645700e-06,1.28e+00,-9.645700e-06,-1.60e-01,
-9.643700e-06,6.80e-01,-9.643700e-06,8.00e-01,
-9.641700e-06,-8.80e-01,-9.641700e-06,1.56e+00,
-9.639700e-06,-1.24e+00,-9.639700e-06,1.00e+00,
-9.637700e-06,8.00e-02,-9.637700e-06,-8.00e-02,
-9.635700e-06,1.28e+00,-9.635700e-06,-1.60e-01,
-9.633700e-06,6.80e-01,-9.633700e-06,8.00e-01,
-9.631700e-06,-8.80e-01,-9.631700e-06,1.56e+00,
-9.629700e-06,-1.24e+00,-9.629700e-06,1.00e+00,
-9.627700e-06,8.00e-02,-9.627700e-06,-8.00e-02,
-9.625700e-06,1.28e+00,-9.625700e-06,-1.60e-01,
-9.623700e-06,6.80e-01,-9.623700e-06,8.00e-01,
-9.621700e-06,-8.80e-01,-9.621700e-06,1.56e+00,
-9.619700e-06,-1.24e+00,-9.619700e-06,1.00e+00,
-9.617700e-06,8.00e-02,-9.617700e-06,-8.00e-02,
-9.615700e-06,1.28e+00,-9.615700e-06,-1.60e-01,
-9.613700e-06,6.80e-01,-9.613700e-06,8.00e-01,
-9.611700e-06,-8.80e-01,-9.611700e-06,1.56e+00,
-9.609700e-06,-1.24e+00,-9.609700e-06,1.00e+00,
-9.607700e-06,8.00e-02,-9.607700e-06,-8.00e-02,
-9.605700e-06,1.28e+00,-9.605700e-06,-1.60e-01,
-9.603700e-06,6.80e-01,-9.603700e-06,8.00e-01,
-9.601700e-06,-8.80e-01,-9.601700e-06,1.56e+00,
-9.599700e-06,-1.24e+00,-9.599700e-06,1.00e+00,
-9.597700e-06,8.00e-02,-9.597700e-06,-8.00e-02,
-9.595700e-06,1.28e+00,-9.595700e-06,-1.60e-01,
-9.593700e-06,6.80e-01,-9.593700e-06,8.00e-01,
-9.591700e-06,-8.80e-01,-9.591700e-06,1.56e+00,
-9.589700e-06,-1.24e+00,-9.589700e-06,1.00e+00,
-9.587700e-06,8.00e-02,-9.587700e-06,-8.00e-02,
-9.585700e-06,1.28e+00,-9.585700e-06,-1.60e-01,
-9.583700e-06,6.80e-01,-9.583700e-06,8.00e-01,
-9.581700e-06,-8.80e-01,-9.581700e-06,1.56e+00,
-9.579700e-06,-1.24e+00,-9.579700e-06,1.00e+00,
-9.577700e-06,8.00e-02,-9.577700e-06,-8.00e-02,
-9.575700e-06,1.28e+00,-9.575700e-06,-1.60e-01,
-9.573700e-06,6.80e-01,-9.573700e-06,8.00e-01,
-9.571700e-06,-8.80e-01,-9.571700e-06,1.56e+00,
-9.569700e-06,-1.24e+00,-9.569700e-06,1.00e+00,
-9.567700e-06,8.00e-02,-9.567700e-06,-8.00e-02,
-9.565700e-06,1.28e+00,-9.565700e-06,-1.60e-01,
-9.563700e-06,6.80e-01,-9.563700e-06,8.00e-01,
-9.561700e-06,-8.80e-01,-9.561700e-06,1.56e+00,
-9.559700e-06,-1.24e+00,-9.559700e-06,1.00e+00,
-9.557700e-06,8.00e-02,-9.557700e-06,-8.00e-02,
-9.555700e-06,1.28e+00,-9.555700e-06,-1.60e-01,
-9.553700e-06,6.80e-01,-9.553700e-06,8.00e-01,
-9.551700e-06,-8.80e-01,-9.551700e-06,1.56e+00,
-9.549700e-06,-1.24e+00,-9.549700e-06,1.00e+00,
-9.547700e-06,8.00e-02,-9.547700e-06,-8.00e-02,
-9.545700e-06,1.28e+00,-9.545700e-06,-1.60e-01,
-9.543700e-06,6.80e-01,-9.543700e-06,8.00e-01,
-9.541700e-06,-8.80e-01,-9.541700e-06,1.56e+00,
-9.539700e-06,-1.24e+00,-9.539700e-06,1.00e+00,
-9.537700e-06,8.00e-02,-9.537700e-06,-8.00e-02,
-9.535700e-06,1.28e+00,-9.535700e-06,-1.60e-01,
-9.533700e-06,6.80e-01,-9.533700e-06,8.00e-01,
-9.531700e-06,-8.80e-01,-9.531700e-06,1.56e+00,
-9.529700e-06,-1.24e+00,-9.529700e-06,1.00e+00,
-9.527700e-06,8.00e-02,-9.527700e-06,-8.00e-02,
-9.525700e-06,1.28e+00,-9.525700e-06,-1.60e-01,
-9.523700e-06,7.20e-01,-9.523700e-06,8.00e-01,
-9.521700e-06,-8.80e-01,-9.521700e-06,1.56e+00,
-9.519700e-06,-1.24e+00,-9.519700e-06,1.00e+00,
-9.517700e-06,8.00e-02,-9.517700e-06,-8.00e-02,
-9.515700e-06,1.28e+00,-9.515700e-06,-1.60e-01,
-9.513700e-06,6.80e-01,-9.513700e-06,8.00e-01,
-9.511700e-06,-8.80e-01,-9.511700e-06,1.56e+00,
-9.509700e-06,-1.24e+00,-9.509700e-06,1.00e+00,
-9.507700e-06,8.00e-02,-9.507700e-06,-8.00e-02,
-9.505700e-06,1.28e+00,-9.505700e-06,-1.60e-01,
-9.503700e-06,6.80e-01,-9.503700e-06,8.00e-01,
-9.501700e-06,-8.80e-01,-9.501700e-06,1.56e+00,
-9.499700e-06,-1.24e+00,-9.499700e-06,1.00e+00,
-9.497700e-06,8.00e-02,-9.497700e-06,-8.00e-02,
-9.495700e-06,1.28e+00,-9.495700e-06,-1.60e-01,
-9.493700e-06,6.80e-01,-9.493700e-06,8.00e-01,
-9.491700e-06,-8.80e-01,-9.491700e-06,1.56e+00,
-9.489700e-06,-1.24e+00,-9.489700e-06,1.00e+00,
-9.487700e-06,8.00e-02,-9.487700e-06,-8.00e-02,
-9.485700e-06,1.28e+00,-9.485700e-06,-1.60e-01,
-9.483700e-06,6.80e-01,-9.483700e-06,8.00e-01,
-9.481700e-06,-8.80e-01,-9.481700e-06,1.56e+00,
-9.479700e-06,-1.24e+00,-9.479700e-06,1.00e+00,
-9.477700e-06,8.00e-02,-9.477700e-06,-8.00e-02,
-9.475700e-06,1.28e+00,-9.475700e-06,-1.60e-01,
-9.473700e-06,6.80e-01,-9.473700e-06,8.00e-01,
-9.471700e-06,-8.80e-01,-9.471700e-06,1.56e+00,
-9.469700e-06,-1.24e+00,-9.469700e-06,1.00e+00,
-9.467700e-06,8.00e-02,-9.467700e-06,-8.00e-02,
-9.465700e-06,1.28e+00,-9.465700e-06,-1.60e-01,
-9.463700e-06,6.80e-01,-9.463700e-06,8.00e-01,
-9.461700e-06,-8.80e-01,-9.461700e-06,1.56e+00,
-9.459700e-06,-1.24e+00,-9.459700e-06,1.00e+00,
-9.457700e-06,8.00e-02,-9.457700e-06,-8.00e-02,
-9.455700e-06,1.28e+00,-9.455700e-06,-1.60e-01,
-9.453700e-06,6.80e-01,-9.453700e-06,8.00e-01,
-9.451700e-06,-8.80e-01,-9.451700e-06,1.56e+00,
-9.449700e-06,-1.24e+00,-9.449700e-06,1.00e+00,
-9.447700e-06,8.00e-02,-9.447700e-06,-8.00e-02,
-9.445700e-06,1.28e+00,-9.445700e-06,-1.60e-01,
-9.443700e-06,7.20e-01,-9.443700e-06,8.00e-01,
-9.441700e-06,-8.80e-01,-9.441700e-06,1.56e+00,
-9.439700e-06,-1.24e+00,-9.439700e-06,1.00e+00,
-9.437700e-06,8.00e-02,-9.437700e-06,-8.00e-02,
-9.435700e-06,1.28e+00,-9.435700e-06,-1.60e-01,
-9.433700e-06,6.80e-01,-9.433700e-06,8.00e-01,
-9.431700e-06,-8.80e-01,-9.431700e-06,1.56e+00,
-9.429700e-06,-1.24e+00,-9.429700e-06,1.00e+00,
-9.427700e-06,8.00e-02,-9.427700e-06,-8.00e-02,
-9.425700e-06,1.28e+00,-9.425700e-06,-1.60e-01,
-9.423700e-06,6.80e-01,-9.423700e-06,8.00e-01,
-9.421700e-06,-8.80e-01,-9.421700e-06,1.56e+00,
-9.419700e-06,-1.24e+00,-9.419700e-06,1.00e+00,
-9.417700e-06,8.00e-02,-9.417700e-06,-8.00e-02,
-9.415700e-06,1.28e+00,-9.415700e-06,-1.60e-01,
-9.413700e-06,6.80e-01,-9.413700e-06,8.00e-01,
-9.411700e-06,-8.80e-01,-9.411700e-06,1.56e+00,
-9.409700e-06,-1.24e+00,-9.409700e-06,1.00e+00,
-9.407700e-06,8.00e-02,-9.407700e-06,-8.00e-02,
-9.405700e-06,1.28e+00,-9.405700e-06,-1.60e-01,
-9.403700e-06,7.20e-01,-9.403700e-06,8.00e-01,
-9.401700e-06,-8.80e-01,-9.401700e-06,1.56e+00,
-9.399700e-06,-1.24e+00,-9.399700e-06,1.00e+00,
-9.397700e-06,8.00e-02,-9.397700e-06,-8.00e-02,
-9.395700e-06,1.28e+00,-9.395700e-06,-1.60e-01,
-9.393700e-06,6.80e-01,-9.393700e-06,8.00e-01,
-9.391700e-06,-8.80e-01,-9.391700e-06,1.56e+00,
-9.389700e-06,-1.24e+00,-9.389700e-06,1.00e+00,
-9.387700e-06,8.00e-02,-9.387700e-06,-8.00e-02,
-9.385700e-06,1.28e+00,-9.385700e-06,-1.60e-01,
-9.383700e-06,6.80e-01,-9.383700e-06,8.00e-01,
-9.381700e-06,-8.80e-01,-9.381700e-06,1.56e+00,
-9.379700e-06,-1.24e+00,-9.379700e-06,1.00e+00,
-9.377700e-06,8.00e-02,-9.377700e-06,-8.00e-02,
-9.375700e-06,1.28e+00,-9.375700e-06,-1.60e-01,
-9.373700e-06,6.80e-01,-9.373700e-06,8.00e-01,
-9.371700e-06,-8.80e-01,-9.371700e-06,1.56e+00,
-9.369700e-06,-1.24e+00,-9.369700e-06,1.00e+00,
-9.367700e-06,8.00e-02,-9.367700e-06,-8.00e-02,
-9.365700e-06,1.28e+00,-9.365700e-06,-1.60e-01,
-9.363700e-06,6.80e-01,-9.363700e-06,8.00e-01,
-9.361700e-06,-8.80e-01,-9.361700e-06,1.56e+00,
-9.359700e-06,-1.24e+00,-9.359700e-06,1.00e+00,
-9.357700e-06,8.00e-02,-9.357700e-06,-8.00e-02,
-9.355700e-06,1.28e+00,-9.355700e-06,-1.60e-01,
-9.353700e-06,6.80e-01,-9.353700e-06,8.00e-01,
-9.351700e-06,-8.80e-01,-9.351700e-06,1.56e+00,
-9.349700e-06,-1.24e+00,-9.349700e-06,1.00e+00,
-9.347700e-06,8.00e-02,-9.347700e-06,-8.00e-02,
-9.345700e-06,1.28e+00,-9.345700e-06,-1.60e-01,
-9.343700e-06,6.80e-01,-9.343700e-06,8.00e-01,
-9.341700e-06,-8.80e-01,-9.341700e-06,1.56e+00,
-9.339700e-06,-1.24e+00,-9.339700e-06,1.00e+00,
-9.337700e-06,8.00e-02,-9.337700e-06,-8.00e-02,
-9.335700e-06,1.28e+00,-9.335700e-06,-1.60e-01,
-9.333700e-06,6.80e-01,-9.333700e-06,8.00e-01,
-9.331700e-06,-8.80e-01,-9.331700e-06,1.56e+00,
-9.329700e-06,-1.24e+00,-9.329700e-06,1.00e+00,
-9.327700e-06,8.00e-02,-9.327700e-06,-1.20e-01,
-9.325700e-06,1.28e+00,-9.325700e-06,-1.60e-01,
-9.323700e-06,6.80e-01,-9.323700e-06,8.00e-01,
-9.321700e-06,-8.80e-01,-9.321700e-06,1.56e+00,
-9.319700e-06,-1.24e+00,-9.319700e-06,1.00e+00,
-9.317700e-06,8.00e-02,-9.317700e-06,-8.00e-02,
-9.315700e-06,1.28e+00,-9.315700e-06,-1.60e-01,
-9.313700e-06,6.80e-01,-9.313700e-06,8.00e-01,
-9.311700e-06,-8.80e-01,-9.311700e-06,1.56e+00,
-9.309700e-06,-1.24e+00,-9.309700e-06,9.60e-01,
-9.307700e-06,1.20e-01,-9.307700e-06,-1.20e-01,
-9.305700e-06,1.28e+00,-9.305700e-06,-1.60e-01,
-9.303700e-06,6.80e-01,-9.303700e-06,8.00e-01,
-9.301700e-06,-8.80e-01,-9.301700e-06,1.56e+00,
-9.299700e-06,-1.24e+00,-9.299700e-06,9.60e-01,
-9.297700e-06,8.00e-02,-9.297700e-06,-8.00e-02,
-9.295700e-06,1.28e+00,-9.295700e-06,-1.60e-01,
-9.293700e-06,6.80e-01,-9.293700e-06,8.00e-01,
-9.291700e-06,-8.80e-01,-9.291700e-06,1.56e+00,
-9.289700e-06,-1.24e+00,-9.289700e-06,9.60e-01,
-9.287700e-06,1.20e-01,-9.287700e-06,-1.20e-01,
-9.285700e-06,1.28e+00,-9.285700e-06,-1.60e-01,
-9.283700e-06,6.80e-01,-9.283700e-06,8.00e-01,
-9.281700e-06,-8.80e-01,-9.281700e-06,1.56e+00,
-9.279700e-06,-1.24e+00,-9.279700e-06,9.60e-01,
-9.277700e-06,1.20e-01,-9.277700e-06,-8.00e-02,
-9.275700e-06,1.28e+00,-9.275700e-06,-1.60e-01,
-9.273700e-06,6.80e-01,-9.273700e-06,8.40e-01,
-9.271700e-06,-8.80e-01,-9.271700e-06,1.56e+00,
-9.269700e-06,-1.24e+00,-9.269700e-06,9.60e-01,
-9.267700e-06,1.20e-01,-9.267700e-06,-1.20e-01,
-9.265700e-06,1.28e+00,-9.265700e-06,-1.60e-01,
-9.263700e-06,6.80e-01,-9.263700e-06,8.00e-01,
-9.261700e-06,-8.80e-01,-9.261700e-06,1.56e+00,
-9.259700e-06,-1.24e+00,-9.259700e-06,9.60e-01,
-9.257700e-06,1.20e-01,-9.257700e-06,-8.00e-02,
-9.255700e-06,1.28e+00,-9.255700e-06,-1.60e-01,
-9.253700e-06,6.80e-01,-9.253700e-06,8.40e-01,
-9.251700e-06,-8.80e-01,-9.251700e-06,1.56e+00,
-9.249700e-06,-1.24e+00,-9.249700e-06,9.60e-01,
-9.247700e-06,1.20e-01,-9.247700e-06,-1.20e-01,
-9.245700e-06,1.28e+00,-9.245700e-06,-1.60e-01,
-9.243700e-06,6.80e-01,-9.243700e-06,8.40e-01,
-9.241700e-06,-8.80e-01,-9.241700e-06,1.56e+00,
-9.239700e-06,-1.24e+00,-9.239700e-06,9.60e-01,
-9.237700e-06,1.20e-01,-9.237700e-06,-8.00e-02,
-9.235700e-06,1.28e+00,-9.235700e-06,-1.60e-01,
-9.233700e-06,6.80e-01,-9.233700e-06,8.40e-01,
-9.231700e-06,-8.80e-01,-9.231700e-06,1.56e+00,
-9.229700e-06,-1.24e+00,-9.229700e-06,9.60e-01,
-9.227700e-06,1.20e-01,-9.227700e-06,-1.20e-01,
-9.225700e-06,1.28e+00,-9.225700e-06,-1.20e-01,
-9.223700e-06,6.80e-01,-9.223700e-06,8.40e-01,
-9.221700e-06,-8.80e-01,-9.221700e-06,1.56e+00,
-9.219700e-06,-1.24e+00,-9.219700e-06,9.60e-01,
-9.217700e-06,1.20e-01,-9.217700e-06,-1.20e-01,
-9.215700e-06,1.28e+00,-9.215700e-06,-1.60e-01,
-9.213700e-06,6.80e-01,-9.213700e-06,8.40e-01,
-9.211700e-06,-8.80e-01,-9.211700e-06,1.56e+00,
-9.209700e-06,-1.24e+00,-9.209700e-06,9.60e-01,
-9.207700e-06,1.20e-01,-9.207700e-06,-1.20e-01,
-9.205700e-06,1.28e+00,-9.205700e-06,-1.20e-01,
-9.203700e-06,6.80e-01,-9.203700e-06,8.40e-01,
-9.201700e-06,-8.80e-01,-9.201700e-06,1.56e+00,
-9.199700e-06,-1.24e+00,-9.199700e-06,9.60e-01,
-9.197700e-06,1.20e-01,-9.197700e-06,-1.20e-01,
-9.195700e-06,1.28e+00,-9.195700e-06,-1.60e-01,
-9.193700e-06,6.80e-01,-9.193700e-06,8.40e-01,
